…
```{.r .cell-code}
exploratory_data %>%
  count(taxon)
```

::: {.cell-output .cell-output-stdout}
```
# A tibble: 27 × 2
   taxon     n
   <chr> <int>
 1 CMED   4041
 2 DMAD   2481
 3 EALB    147
 4 ECOL   1224
 5 ECOR   1056
 6 EFLA   1613
 7 EFUL    180
 8 EMAC    831
 9 EMON   1805
10 ERUB    716
# … with 17 more rows
```
:::

```{.r .cell-code}
exploratory_data %>%
  count(name)
```

::: {.cell-output .cell-output-stdout}
```
# A tibble: 1,966 × 2
   name         n
   <chr>    <int>
 1 AARON        1
 2 ABAS         8
 3 ABDUL        1
 4 ABEDNIGO    11
 5 ABEL         2
 6 ABENA       49
 7 ABNER        1
 8 ABSINTHE     1
 9 Abu        129
10 ACHERNAR     1
# … with 1,956 more rows
```
:::

```{.r .cell-code}
exploratory_data %>%
  group_by(name) %>%
  count(sex)
```

::: {.cell-output .cell-output-stdout}
```
# A tibble: 1,968 × 3
# Groups:   name [1,966]
   name     sex       n
   <chr>    <chr> <int>
 1 AARON    M         1
 2 ABAS     M         8
 3 ABDUL    M         1
 4 ABEDNIGO M        11
 5 ABEL     M         2
 6 ABENA    F        49
 7 ABNER    M         1
 8 ABSINTHE M         1
 9 Abu      F       129
10 ACHERNAR M         1
# … with 1,958 more rows
```
…
```{.r .cell-code}
exploratory_data %>%
  group_by(taxon) %>%
  summarize(avg_lemur_weight = mean(weight_g))
```

::: {.cell-output .cell-output-stdout}
```
# A tibble: 27 × 2
   taxon avg_lemur_weight
   <chr>            <dbl>
 1 CMED              208.
 2 DMAD             2184.
 3 EALB             2074.
 4 ECOL             2298.
 5 ECOR             1485.
 6 EFLA             2154.
 7 EFUL             2262.
 8 EMAC             2218.
 9 EMON             1432.
10 ERUB             2106.
# … with 17 more rows
```
…
```{.r .cell-code}
exploratory_data %>%
  group_by(taxon) %>%
  count(birth_type)
```

::: {.cell-output .cell-output-stdout}
```
# A tibble: 56 × 3
# Groups:   taxon [27]
   taxon birth_type     n
   <chr> <chr>      <int>
 1 CMED  CB          4039
 2 CMED  WB             2
 3 DMAD  CB          1555
 4 DMAD  WB           926
 5 EALB  CB           147
 6 ECOL  CB          1118
 7 ECOL  WB           106
 8 ECOR  CB          1004
 9 ECOR  Unk           10
10 ECOR  WB            42
# … with 46 more rows
```
…
```{.r .cell-code}
exploratory_data %>%
  group_by(taxon) %>%
  count(hybrid)
```

::: {.cell-output .cell-output-stdout}
```
# A tibble: 29 × 3
# Groups:   taxon [27]
   taxon hybrid     n
   <chr> <chr>  <int>
 1 CMED  N       4041
 2 DMAD  N       2481
 3 EALB  N        147
 4 ECOL  N       1224
 5 ECOR  N       1056
 6 EFLA  N       1613
 7 EFUL  N        180
 8 EMAC  N        831
 9 EMON  N       1805
10 ERUB  N        716
# … with 19 more rows
```
…
```{.r .cell-code}
exploratory_data %>%
  count(infant_dob_if_preg)
```

::: {.cell-output .cell-output-stdout}
```
# A tibble: 467 × 2
   infant_dob_if_preg     n
   <date>             <int>
 1 1972-04-27             1
 2 1972-04-29             1
 3 1972-07-05             1
 4 1972-07-10             1
 5 1972-07-20             1
 6 1972-10-04             1
 7 1980-05-08             1
 8 1980-07-28             1
 9 1981-05-03             1
10 1983-08-21             1
# … with 457 more rows
```
…
```{.r .cell-code}
test_data %>%
  group_by(taxon) %>%
  count(hybrid)
```

::: {.cell-output .cell-output-stdout}
```
# A tibble: 29 × 3
# Groups:   taxon [27]
   taxon hybrid     n
   <chr> <chr>  <int>
 1 CMED  N       4029
 2 DMAD  N       2596
 3 EALB  N        180
 4 ECOL  N       1243
 5 ECOR  N       1038
 6 EFLA  N       1604
 7 EFUL  N        148
 8 EMAC  N        903
 9 EMON  N       1840
10 ERUB  N        640
# … with 19 more rows
```
…
```{.r .cell-code}
test_data %>%
  count(infant_dob_if_preg)
```

::: {.cell-output .cell-output-stdout}
```
# A tibble: 506 × 2
   infant_dob_if_preg     n
   <date>             <int>
 1 1972-03-08             1
 2 1972-05-08             1
 3 1972-05-12             1
 4 1972-06-01             1
 5 1972-07-05             1
 6 1972-07-12             1
 7 1980-05-02             1
 8 1980-05-07             1
 9 1980-07-14             1
10 1980-07-20             2
# … with 496 more rows
```
…
