Lemurs
…
exploratory_data %>%
  count(sex)

# A tibble: 3 × 2
  sex       n
  <chr> <int>
1 F     20349
2 M     20948
3 ND        7

exploratory_data %>%
  count(taxon)

# A tibble: 27 × 2
   taxon     n
   <chr> <int>
 1 CMED   4015
 2 DMAD   2480
 3 EALB    161
 4 ECOL   1231
 5 ECOR   1050
 6 EFLA   1602
 7 EFUL    159
 8 EMAC    880
 9 EMON   1804
10 ERUB    688
# … with 17 more rows

exploratory_data %>%
  count(name)

# A tibble: 1,991 × 2
   name         n
   <chr>    <int>
 1 AARON        1
 2 ABAS         9
 3 ABDUL        2
 4 ABEDNIGO    13
 5 ABEL         2
 6 ABENA       51
 7 ABIGAIL      2
 8 ABSINTHE     2
 9 Abu        116
10 ACHILLES     1
# … with 1,981 more rows

exploratory_data %>%
  group_by(name) %>%
  count(sex)

# A tibble: 1,992 × 3
# Groups:   name [1,991]
   name     sex       n
   <chr>    <chr> <int>
 1 AARON    M         1
 2 ABAS     M         9
 3 ABDUL    M         2
 4 ABEDNIGO M        13
 5 ABEL     M         2
 6 ABENA    F        51
 7 ABIGAIL  F         2
 8 ABSINTHE M         2
 9 Abu      F       116
10 ACHILLES M         1
# … with 1,982 more rows
…
Here we will see the average weight of a Lemur. To narrow this even more, we will look at the average weight of a Lemur per taxon. After running this, it is evident that the average weight of a Lemur is 1,484.9 grams. This is about 3.3 pounds which is very light. The taxon MMUR (Gray Mouse Lemur) has the lightest weight of 74 grams or 0.16 pounds. The taxon EFUL (Common Brown Lemur) has the heaviest weight of 2,372 grams or about 5 pounds.

exploratory_data %>%
  summarize(avg_lemur_weight = mean(weight_g))

# A tibble: 1 × 1
  avg_lemur_weight
             <dbl>
1            1479.

exploratory_data %>%
  group_by(taxon) %>%
  summarize(avg_lemur_weight = mean(weight_g))

# A tibble: 27 × 2
   taxon avg_lemur_weight
   <chr>            <dbl>
 1 CMED              208.
 2 DMAD             2179.
 3 EALB             2092.
 4 ECOL             2285.
 5 ECOR             1484.
 6 EFLA             2134.
 7 EFUL             2321.
 8 EMAC             2221.
 9 EMON             1427.
10 ERUB             2105.
# … with 17 more rows
…
exploratory_data %>%
  count(birth_type)

# A tibble: 3 × 2
  birth_type     n
  <chr>      <int>
1 CB         37491
2 Unk           85
3 WB          3728

exploratory_data %>%
  group_by(taxon) %>%
  count(birth_type)

# A tibble: 55 × 3
# Groups:   taxon [27]
   taxon birth_type     n
   <chr> <chr>      <int>
 1 CMED  CB          4013
 2 CMED  WB             2
 3 DMAD  CB          1541
 4 DMAD  WB           939
 5 EALB  CB           161
 6 ECOL  CB          1122
 7 ECOL  WB           109
 8 ECOR  CB           998
 9 ECOR  Unk            6
10 ECOR  WB            46
# … with 45 more rows
…
exploratory_data %>%
  count(hybrid)

# A tibble: 2 × 2
  hybrid     n
  <chr>  <int>
1 N      40292
2 Sp      1012

exploratory_data %>%
  group_by(taxon) %>%
  count(hybrid)

# A tibble: 29 × 3
# Groups:   taxon [27]
   taxon hybrid     n
   <chr> <chr>  <int>
 1 CMED  N       4015
 2 DMAD  N       2480
 3 EALB  N        161
 4 ECOL  N       1231
 5 ECOR  N       1050
 6 EFLA  N       1602
 7 EFUL  N        159
 8 EMAC  N        880
 9 EMON  N       1804
10 ERUB  N        688
# … with 19 more rows
…
exploratory_data %>%
  count(infant_dob_if_preg)

# A tibble: 490 × 2
   infant_dob_if_preg     n
   <date>             <int>
 1 1972-03-08             1
 2 1972-04-29             1
 3 1972-07-05             1
 4 1972-07-10             1
 5 1972-07-20             1
 6 1972-10-04             1
 7 1980-05-07             1
 8 1980-05-08             1
 9 1980-07-14             1
10 1981-03-06             1
# … with 480 more rows
…
test_data %>%
  count(hybrid)

# A tibble: 2 × 2
  hybrid     n
  <chr>  <int>
1 N      40313
2 Sp       992

test_data %>%
  group_by(taxon) %>%
  count(hybrid)

# A tibble: 29 × 3
# Groups:   taxon [27]
   taxon hybrid     n
   <chr> <chr>  <int>
 1 CMED  N       4055
 2 DMAD  N       2597
 3 EALB  N        166
 4 ECOL  N       1236
 5 ECOR  N       1044
 6 EFLA  N       1615
 7 EFUL  N        169
 8 EMAC  N        854
 9 EMON  N       1841
10 ERUB  N        668
# … with 19 more rows
…
test_data %>%
  count(infant_dob_if_preg)

# A tibble: 488 × 2
   infant_dob_if_preg     n
   <date>             <int>
 1 1972-04-27             1
 2 1972-05-08             1
 3 1972-05-12             1
 4 1972-06-01             1
 5 1972-07-05             1
 6 1972-07-12             1
 7 1980-05-02             1
 8 1980-07-20             2
 9 1980-07-28             1
10 1980-08-16             1
# … with 478 more rows
…
